Library/Bee/artifacts/mvdfrm/Unity.2D.Animation.Editor.ref.dll_AC471A120856CE35.mvfrm
Library/Bee/artifacts/mvdfrm/Unity.2D.Animation.Runtime.ref.dll_8A406646DF492A26.mvfrm
Library/Bee/artifacts/mvdfrm/Unity.2D.Common.Editor.ref.dll_C9AFC0EDC556EDD8.mvfrm
Library/Bee/artifacts/mvdfrm/Unity.2D.Common.Runtime.ref.dll_42D85E2227B6C2D3.mvfrm
Library/Bee/artifacts/mvdfrm/Unity.2D.IK.Editor.ref.dll_EBF3BACA2A514D71.mvfrm
Library/Bee/artifacts/mvdfrm/Unity.2D.IK.Runtime.ref.dll_B4FA537E43BB692A.mvfrm
Library/Bee/artifacts/mvdfrm/Unity.2D.Path.Editor.ref.dll_35D006F03DC7A26E.mvfrm
Library/Bee/artifacts/mvdfrm/Unity.2D.PixelPerfect.Editor.ref.dll_5F23829DFA92480C.mvfrm
Library/Bee/artifacts/mvdfrm/Unity.2D.PixelPerfect.ref.dll_CF433C05B6C4B5F5.mvfrm
Library/Bee/artifacts/mvdfrm/Unity.2D.Psdimporter.Editor.ref.dll_DF0BC32FE527ED06.mvfrm
Library/Bee/artifacts/mvdfrm/Unity.2D.Sprite.Editor.ref.dll_EA10BD9C4E5060DE.mvfrm
Library/Bee/artifacts/mvdfrm/Unity.2D.SpriteShape.Editor.ref.dll_428FBFCD21F4791D.mvfrm
Library/Bee/artifacts/mvdfrm/Unity.2D.SpriteShape.Runtime.ref.dll_CBF780C4D9DF3CBE.mvfrm
Library/Bee/artifacts/mvdfrm/Unity.2D.Tilemap.Editor.ref.dll_0ECADD1123B5277B.mvfrm
Library/Bee/artifacts/mvdfrm/Unity.2D.Tilemap.Extras.Editor.ref.dll_F84F848DBA09E460.mvfrm
Library/Bee/artifacts/mvdfrm/Unity.2D.Tilemap.Extras.ref.dll_027D0458828A6461.mvfrm
Library/Bee/artifacts/mvdfrm/Unity.Burst.Editor.ref.dll_D8E992B53B2FA1FF.mvfrm
Library/Bee/artifacts/mvdfrm/Unity.Burst.ref.dll_9CE15340CD9598D2.mvfrm
Library/Bee/artifacts/mvdfrm/Unity.InternalAPIEditorBridge.001.ref.dll_C0BD7C054244FC28.mvfrm
Library/Bee/artifacts/mvdfrm/Unity.InternalAPIEngineBridge.001.ref.dll_B33834AFA753E36D.mvfrm
Library/Bee/artifacts/mvdfrm/Unity.Mathematics.Editor.ref.dll_3D2C2B72ECCBF4B9.mvfrm
Library/Bee/artifacts/mvdfrm/Unity.Mathematics.ref.dll_F20355C132B4E278.mvfrm
Library/Bee/artifacts/mvdfrm/Unity.PlasticSCM.Editor.ref.dll_F0D9BA1F3F167740.mvfrm
Library/Bee/artifacts/mvdfrm/Unity.Rider.Editor.ref.dll_9145F68A59D35CE5.mvfrm
Library/Bee/artifacts/mvdfrm/Unity.TextMeshPro.Editor.ref.dll_B8A961BBD8ABE0FC.mvfrm
Library/Bee/artifacts/mvdfrm/Unity.TextMeshPro.ref.dll_8DB7A3E3632A4E05.mvfrm
Library/Bee/artifacts/mvdfrm/Unity.Timeline.Editor.ref.dll_53B6806BAD4EBBBC.mvfrm
Library/Bee/artifacts/mvdfrm/Unity.Timeline.ref.dll_5AB3C2EE9968C745.mvfrm
Library/Bee/artifacts/mvdfrm/Unity.VSCode.Editor.ref.dll_D4305E79DE2C8083.mvfrm
Library/Bee/artifacts/mvdfrm/Unity.VisualScripting.Core.Editor.ref.dll_EC0FF0FDA4803327.mvfrm
Library/Bee/artifacts/mvdfrm/Unity.VisualScripting.Core.ref.dll_FA56F406C264152A.mvfrm
Library/Bee/artifacts/mvdfrm/Unity.VisualScripting.Flow.Editor.ref.dll_6940D9ACB35EBE68.mvfrm
Library/Bee/artifacts/mvdfrm/Unity.VisualScripting.Flow.ref.dll_4167D45D446D89D9.mvfrm
Library/Bee/artifacts/mvdfrm/Unity.VisualScripting.SettingsProvider.Editor.ref.dll_B8324D455948C852.mvfrm
Library/Bee/artifacts/mvdfrm/Unity.VisualScripting.Shared.Editor.ref.dll_F54BA3F421A71E21.mvfrm
Library/Bee/artifacts/mvdfrm/Unity.VisualScripting.State.Editor.ref.dll_E3BEEDFEAAF21AA5.mvfrm
Library/Bee/artifacts/mvdfrm/Unity.VisualScripting.State.ref.dll_00B85F0613CA4DCC.mvfrm
Library/Bee/artifacts/mvdfrm/Unity.VisualStudio.Editor.ref.dll_45A2A186C05004D7.mvfrm
Library/Bee/artifacts/mvdfrm/UnityEditor.UI.ref.dll_452FB8EBD860BCAB.mvfrm
Library/Bee/artifacts/mvdfrm/UnityEngine.UI.ref.dll_01958F46DE82E516.mvfrm
Library/Bee/artifacts/mvdfrm/UnityEditor.CoreModule.dll_CEBB87C36A4DD6CB.mvfrm
Library/Bee/artifacts/mvdfrm/UnityEditor.DeviceSimulatorModule.dll_BC98CFA48D479DE6.mvfrm
Library/Bee/artifacts/mvdfrm/UnityEditor.DiagnosticsModule.dll_9ADFE0B3205CE6B4.mvfrm
Library/Bee/artifacts/mvdfrm/UnityEditor.GraphViewModule.dll_1FD8B4BF7A303C0B.mvfrm
Library/Bee/artifacts/mvdfrm/UnityEditor.PackageManagerUIModule.dll_A9044D531E64A467.mvfrm
Library/Bee/artifacts/mvdfrm/UnityEditor.QuickSearchModule.dll_25EF61C07933E30D.mvfrm
Library/Bee/artifacts/mvdfrm/UnityEditor.SceneTemplateModule.dll_2F7B8255DB3AB52E.mvfrm
Library/Bee/artifacts/mvdfrm/UnityEditor.TextCoreFontEngineModule.dll_FA126C9A63EEE7E9.mvfrm
Library/Bee/artifacts/mvdfrm/UnityEditor.TextCoreTextEngineModule.dll_41FAA30BF372A107.mvfrm
Library/Bee/artifacts/mvdfrm/UnityEditor.UIBuilderModule.dll_746161DBECE8B53F.mvfrm
Library/Bee/artifacts/mvdfrm/UnityEditor.UIElementsModule.dll_F69EDD6C19C37027.mvfrm
Library/Bee/artifacts/mvdfrm/UnityEditor.UIElementsSamplesModule.dll_75C7A1BB03DD10B6.mvfrm
Library/Bee/artifacts/mvdfrm/UnityEditor.UIServiceModule.dll_AD53733ED6200559.mvfrm
Library/Bee/artifacts/mvdfrm/UnityEditor.UnityConnectModule.dll_59DF633B27AAEB01.mvfrm
Library/Bee/artifacts/mvdfrm/UnityEditor.dll_C75A2FF74D77F8DA.mvfrm
Library/Bee/artifacts/mvdfrm/UnityEngine.AIModule.dll_1796700DEF8E39BF.mvfrm
Library/Bee/artifacts/mvdfrm/UnityEngine.AccessibilityModule.dll_6220EDECDBB0DCCB.mvfrm
Library/Bee/artifacts/mvdfrm/UnityEngine.AndroidJNIModule.dll_74E7C63F62E2DEFD.mvfrm
Library/Bee/artifacts/mvdfrm/UnityEngine.AnimationModule.dll_EE5E30E8548D10B1.mvfrm
Library/Bee/artifacts/mvdfrm/UnityEngine.AssetBundleModule.dll_69D894B1DB9A97FF.mvfrm
Library/Bee/artifacts/mvdfrm/UnityEngine.AudioModule.dll_C8374FCCC58D5D63.mvfrm
Library/Bee/artifacts/mvdfrm/UnityEngine.ClothModule.dll_2F1FACC79FAA3C47.mvfrm
Library/Bee/artifacts/mvdfrm/UnityEngine.ClusterInputModule.dll_D97BD850D932BDC7.mvfrm
Library/Bee/artifacts/mvdfrm/UnityEngine.ClusterRendererModule.dll_C2459215FD02AB6A.mvfrm
Library/Bee/artifacts/mvdfrm/UnityEngine.CoreModule.dll_F1DC5B16125341F6.mvfrm
Library/Bee/artifacts/mvdfrm/UnityEngine.CrashReportingModule.dll_4B0C82C68483AB4E.mvfrm
Library/Bee/artifacts/mvdfrm/UnityEngine.DSPGraphModule.dll_F0C396B142502EB4.mvfrm
Library/Bee/artifacts/mvdfrm/UnityEngine.DirectorModule.dll_EB723547CFEF5D93.mvfrm
Library/Bee/artifacts/mvdfrm/UnityEngine.GIModule.dll_AFD2B91B8B3D21D9.mvfrm
Library/Bee/artifacts/mvdfrm/UnityEngine.GameCenterModule.dll_9F35105A2923CFEE.mvfrm
Library/Bee/artifacts/mvdfrm/UnityEngine.GridModule.dll_CF4D77042AA7D7ED.mvfrm
Library/Bee/artifacts/mvdfrm/UnityEngine.HotReloadModule.dll_6FA6EEEE2FC02C33.mvfrm
Library/Bee/artifacts/mvdfrm/UnityEngine.IMGUIModule.dll_0096EF338BBEF144.mvfrm
Library/Bee/artifacts/mvdfrm/UnityEngine.ImageConversionModule.dll_2E378FC67F27635E.mvfrm
Library/Bee/artifacts/mvdfrm/UnityEngine.InputLegacyModule.dll_FB1DAFD0738C4DF0.mvfrm
Library/Bee/artifacts/mvdfrm/UnityEngine.InputModule.dll_2EAD177D3BC58207.mvfrm
Library/Bee/artifacts/mvdfrm/UnityEngine.JSONSerializeModule.dll_C2387728DAEC3D55.mvfrm
Library/Bee/artifacts/mvdfrm/UnityEngine.LocalizationModule.dll_17C8A2A370AEB0C0.mvfrm
Library/Bee/artifacts/mvdfrm/UnityEngine.ParticleSystemModule.dll_9E1ECC12F29536DC.mvfrm
Library/Bee/artifacts/mvdfrm/UnityEngine.PerformanceReportingModule.dll_2EABBF3F33DE4CB5.mvfrm
Library/Bee/artifacts/mvdfrm/UnityEngine.Physics2DModule.dll_3B0420D8F58A0846.mvfrm
Library/Bee/artifacts/mvdfrm/UnityEngine.PhysicsModule.dll_232D1B30564CE294.mvfrm
Library/Bee/artifacts/mvdfrm/UnityEngine.ProfilerModule.dll_1DB86E7E6948E4A0.mvfrm
Library/Bee/artifacts/mvdfrm/UnityEngine.RuntimeInitializeOnLoadManagerInitializerModule.dll_A8CDA493A901050F.mvfrm
Library/Bee/artifacts/mvdfrm/UnityEngine.ScreenCaptureModule.dll_DC2024ADEF5869B7.mvfrm
Library/Bee/artifacts/mvdfrm/UnityEngine.SharedInternalsModule.dll_B248CE9BF6555EAE.mvfrm
Library/Bee/artifacts/mvdfrm/UnityEngine.SpriteMaskModule.dll_886182EA4A936568.mvfrm
Library/Bee/artifacts/mvdfrm/UnityEngine.SpriteShapeModule.dll_8339C20C913CD009.mvfrm
Library/Bee/artifacts/mvdfrm/UnityEngine.StreamingModule.dll_A2F31E38A414C7EF.mvfrm
Library/Bee/artifacts/mvdfrm/UnityEngine.SubstanceModule.dll_7F9E3281EF67C5FD.mvfrm
Library/Bee/artifacts/mvdfrm/UnityEngine.SubsystemsModule.dll_F30EE94C18DB4D7B.mvfrm
Library/Bee/artifacts/mvdfrm/UnityEngine.TLSModule.dll_F8C04E03D5BE6E68.mvfrm
Library/Bee/artifacts/mvdfrm/UnityEngine.TerrainModule.dll_3D73969F2C0B2B82.mvfrm
Library/Bee/artifacts/mvdfrm/UnityEngine.TerrainPhysicsModule.dll_9E9974E60BD83169.mvfrm
Library/Bee/artifacts/mvdfrm/UnityEngine.TextCoreFontEngineModule.dll_7871E7ED76ECA6B4.mvfrm
Library/Bee/artifacts/mvdfrm/UnityEngine.TextCoreTextEngineModule.dll_C05A1E5F06705FD2.mvfrm
Library/Bee/artifacts/mvdfrm/UnityEngine.TextRenderingModule.dll_055F96B8A68FE9AC.mvfrm
Library/Bee/artifacts/mvdfrm/UnityEngine.TilemapModule.dll_DC6FFE2043C80C8B.mvfrm
Library/Bee/artifacts/mvdfrm/UnityEngine.UIElementsModule.dll_F74D4AB41C078972.mvfrm
Library/Bee/artifacts/mvdfrm/UnityEngine.UIElementsNativeModule.dll_F37E01E88FDD1489.mvfrm
Library/Bee/artifacts/mvdfrm/UnityEngine.UIModule.dll_130A0E3B4BD53F6B.mvfrm
Library/Bee/artifacts/mvdfrm/UnityEngine.UNETModule.dll_8482A2FF5F62376F.mvfrm
Library/Bee/artifacts/mvdfrm/UnityEngine.UmbraModule.dll_430BFBE552B408D6.mvfrm
Library/Bee/artifacts/mvdfrm/UnityEngine.UnityAnalyticsCommonModule.dll_C9EA7C834DC6EB13.mvfrm
Library/Bee/artifacts/mvdfrm/UnityEngine.UnityAnalyticsModule.dll_BDBE3CDC9EBC88D8.mvfrm
Library/Bee/artifacts/mvdfrm/UnityEngine.UnityConnectModule.dll_473EE74A2232EBAC.mvfrm
Library/Bee/artifacts/mvdfrm/UnityEngine.UnityCurlModule.dll_217AD219C4A1029E.mvfrm
Library/Bee/artifacts/mvdfrm/UnityEngine.UnityTestProtocolModule.dll_318A57AD5DD8660C.mvfrm
Library/Bee/artifacts/mvdfrm/UnityEngine.UnityWebRequestAssetBundleModule.dll_F1236637220D8DA9.mvfrm
Library/Bee/artifacts/mvdfrm/UnityEngine.UnityWebRequestAudioModule.dll_A6A8131DBA49174D.mvfrm
Library/Bee/artifacts/mvdfrm/UnityEngine.UnityWebRequestModule.dll_3FD697708A1BFDDD.mvfrm
Library/Bee/artifacts/mvdfrm/UnityEngine.UnityWebRequestTextureModule.dll_397189BC184E48C2.mvfrm
Library/Bee/artifacts/mvdfrm/UnityEngine.UnityWebRequestWWWModule.dll_8B1C63BAF6301C3E.mvfrm
Library/Bee/artifacts/mvdfrm/UnityEngine.VFXModule.dll_799EE672AC2BD7D5.mvfrm
Library/Bee/artifacts/mvdfrm/UnityEngine.VRModule.dll_65DC34C0ED8FC4E3.mvfrm
Library/Bee/artifacts/mvdfrm/UnityEngine.VehiclesModule.dll_63352EC74A192D2E.mvfrm
Library/Bee/artifacts/mvdfrm/UnityEngine.VideoModule.dll_ED40D437881F7908.mvfrm
Library/Bee/artifacts/mvdfrm/UnityEngine.VirtualTexturingModule.dll_180AB657688B9514.mvfrm
Library/Bee/artifacts/mvdfrm/UnityEngine.WindModule.dll_682B363EA389C05F.mvfrm
Library/Bee/artifacts/mvdfrm/UnityEngine.XRModule.dll_989AF7C576CA1241.mvfrm
Library/Bee/artifacts/mvdfrm/UnityEngine.dll_F9FE76CFABEB85BF.mvfrm
Library/Bee/artifacts/mvdfrm/Unity.Burst.Cecil.Mdb.dll_AE731F0127F057EA.mvfrm
Library/Bee/artifacts/mvdfrm/Unity.Burst.Cecil.Pdb.dll_C5C59770A6A5596D.mvfrm
Library/Bee/artifacts/mvdfrm/Unity.Burst.Cecil.Rocks.dll_32DD17675599F92D.mvfrm
Library/Bee/artifacts/mvdfrm/Unity.Burst.Cecil.dll_F12C5CFAD4FCA16D.mvfrm
Library/Bee/artifacts/mvdfrm/Unity.Burst.Unsafe.dll_57AEF555F57F8416.mvfrm
Library/Bee/artifacts/mvdfrm/Unity.VisualScripting.Antlr3.Runtime.dll_1D2ACE7D5A2A6F55.mvfrm